#theta xip(0,0) xip(0,1) xip(0,2) xip(1,1) xip(1,2) xip(2,2) xim(0,0) xim(0,1) xim(0,2) xim(1,1) xim(1,2) xim(2,2)
3.386779999999999902e+00 1.228249999999999972e-05 5.219690000000000333e-07 5.061200000000000264e-05 2.582940000000000041e-05 5.506019999999999843e-05 8.217019999999999468e-05 1.124980000000000027e-05 -2.165630000000000135e-05 3.226750000000000234e-05 -2.115409999999999962e-06 4.758560000000000227e-07 3.074430000000000310e-05
7.810749999999999638e+00 1.939070000000000054e-05 1.340579999999999962e-05 1.373390000000000076e-05 2.766870000000000158e-05 2.295909999999999843e-05 4.638839999999999788e-05 -1.148410000000000072e-05 -5.351079999999999765e-06 -5.642259999999999915e-06 -3.420339999999999934e-06 5.911749999999999769e-06 6.963019999999999785e-06
1.798910000000000053e+01 7.656820000000000664e-06 5.922630000000000247e-06 9.015729999999999483e-06 6.261670000000000139e-06 6.940109999999999694e-06 2.213269999999999902e-05 1.009059999999999958e-05 8.044110000000000474e-06 3.923020000000000092e-06 1.109669999999999999e-05 9.714120000000000431e-06 1.867100000000000132e-05
4.135399999999999920e+01 1.538540000000000011e-06 7.327210000000000401e-07 3.296049999999999977e-06 3.249980000000000095e-06 4.251490000000000015e-06 1.633170000000000154e-05 2.982740000000000092e-06 2.522849999999999910e-06 1.000169999999999989e-06 1.780869999999999985e-06 4.747010000000000312e-06 8.881870000000000056e-06
9.447610000000000241e+01 -3.960630000000000043e-08 8.186649999999999791e-07 1.274119999999999924e-06 1.101299999999999942e-06 1.127770000000000046e-06 2.510909999999999817e-06 6.843950000000000347e-07 8.535560000000000233e-07 1.457559999999999984e-06 8.407980000000000092e-07 2.421509999999999877e-06 6.389649999999999886e-06
2.129329999999999927e+02 -2.837010000000000070e-07 7.172339999999999756e-07 2.486209999999999867e-07 1.603210000000000021e-06 1.261260000000000059e-06 -1.150619999999999963e-06 7.542939999999999647e-07 5.986959999999999765e-08 3.694530000000000062e-08 5.883779999999999764e-07 5.166699999999999804e-07 1.394929999999999958e-06
